{
  "setupFilesAfterEnv": ["<rootDir>/test/setup/setup-files-after-env.ts"],
  "globalSetup": "<rootDir>/test/setup/global/setup.ts",
  "globalTeardown": "<rootDir>/test/setup/global/teardown.ts",
  "transform": {
    "^.+\\.(ts)$": "ts-jest"
  },
  "bail": false,
  "testEnvironment": "node",
  "maxWorkers": "50%",
  "reporters": [
    "default",
    [
      "jest-stare",
      {
        "resultDir": "reports/latest/jest-stare",
        "reportTitle": "<package-name> Test Report",
        "coverageLink": "./../coverage/index.html"
      }
    ]
  ],
  "collectCoverage": true,
  "collectCoverageFrom": [
    "src/**/*.ts",
    "lib/**/*.ts",
    "test/utils/**/*.ts"
  ],
  "coveragePathIgnorePatterns": [
    "src/index.ts"
  ],
  "coverageThreshold": {
    "global": {
      "lines": 95,
      "statements": 95
    }
  },
  "coverageDirectory": "reports/latest/coverage",
  "coverageReporters": ["json", "html", "text-summary"],
  "moduleNameMapper": {
    "^~/(.*)$": "<rootDir>/src/$1",
    "^@/(.*)$": "<rootDir>/lib/$1",
    "^#/(.*)$": "<rootDir>/types/$1",
    "^\\$/(.*)$": "<rootDir>/test/$1",
    "^\\+/(.*)$": "<rootDir>/$1"
  }
}
